<svg id="crown" viewBox="0 0 44 39" fill="none" xmlns="http://www.w3.org/2000/svg">
  <path d="M2.53328 24.8124C9.02108 26.8915 15.0841 29.381 21.3398 31.9941C25.1371 33.5803 28.8933 36.7245 32.732 37.9547C34.0494 38.3768 39.4357 19.2684 40.2428 16.7501C40.9873 14.4267 45.1498 8.42196 39.3797 11.0197C34.5185 13.2083 30.4538 16.5842 25.7418 18.9683C24.1407 19.7784 24.3069 19.5218 24.3448 17.847C24.408 15.055 24.7112 12.2675 25.0054 9.4931C25.0805 8.7851 26.3736 0.680501 24.7794 1.97788C21.4135 4.71693 18.4542 9.2116 15.8013 12.6389C15.221 13.3885 13.3708 16.3844 12.1427 15.7332C10.5385 14.8825 9.43669 12.3874 8.24417 11.0512C6.64067 9.25454 5.23508 7.33876 3.85063 5.37649C3.03756 4.22408 1.51667 0.331841 1.7387 1.71618C2.35177 5.53856 3.14957 8.94276 3.17628 12.8598C3.20697 17.3602 3.72091 21.9649 3.79037 26.3701" stroke-width="2" stroke-linecap="round"/>
</svg>
