<svg width="360" height="360" viewBox="0 0 360 360" fill="none" xmlns="http://www.w3.org/2000/svg">
  <path d="M90 193.783C93.8633 177.186 110.317 160.883 123.659 148.784C133.576 139.79 145.538 130.752 157.683 123.912C158.959 123.193 167.945 116.779 166.789 122.082C166.398 123.874 164.319 126.068 163.171 127.572C157.206 135.385 152.364 143.903 147.073 152.037C129.983 178.31 109.438 204.487 102.805 234.344C102.538 235.544 100.507 241.861 103.089 239.46C109.782 233.237 116.62 227.351 124.106 221.772C154.329 199.246 181.896 174.122 213.333 152.714C218.36 149.292 223.345 145.663 228.496 142.379C229.873 141.501 230.108 142.911 229.593 143.769C228.811 145.073 226.862 146.07 225.732 147.157C221.398 151.325 217.234 155.691 213.211 160.067C203.32 170.828 194.486 182.495 186.423 194.257C181.216 201.854 175.667 209.383 171.667 217.503C169.803 221.285 167.827 225.05 167.561 229.159C167.45 230.864 165.06 236.206 168.13 233.903C171.209 231.593 174.287 229.434 177.561 227.228C189.461 219.207 202.031 211.711 214.472 204.287C226.422 197.156 238.08 189.396 250.813 183.245C255.739 180.865 263.893 176.095 270 176.095" stroke="#ff0059" stroke-width="44" stroke-linecap="round"/>
</svg>
