<svg viewBox="0 0 12 13" xmlns="http://www.w3.org/2000/svg">
  <path d="M7.18298 3.79835C7.18298 5.33069 7.18298 6.86303 7.18298 8.39536C7.18298 9.05761 7.199 8.50414 7.18298 8.15055C7.13041 6.99034 6.49515 5.79876 6.0377 4.69599C5.88442 4.32648 5.26652 1.90213 5.40144 2.00306C6.0758 2.50759 6.19085 3.5416 6.36492 4.19277C6.8312 5.93698 7.04426 7.71325 7.5102 9.45621C7.59714 9.78142 8.50944 12.01 8.49187 11.5235C8.40201 9.03603 6.74317 6.73392 6.20131 4.30157C5.90165 2.95642 5.72801 2.18655 6.0377 4.17917C6.21328 5.30887 6.23822 6.45784 6.69215 7.55212C6.71978 7.61875 7.45611 8.84798 7.03755 8.83059C6.3832 8.80339 5.18061 8.0187 4.60156 7.79694C4.22976 7.65454 1.2792 6.78929 2.63823 6.49127C3.10095 6.38981 9.62149 5.39339 9.54625 5.28082C8.865 4.26146 2.3362 7.08195 1.43841 7.55212C-0.923876 8.78927 6.9132 6.1134 9.40082 5.02241C10.5306 4.52694 8.88502 5.08599 8.60094 5.18561C6.50269 5.92146 4.54189 6.86128 2.52915 7.71533C1.7189 8.05914 0.193578 8.64139 2.16557 8.09615C4.29659 7.50694 6.27148 6.6619 8.43733 6.13766C10.6555 5.60075 11.0411 5.26459 8.31008 6.15126C6.43273 6.76078 4.63827 7.48062 2.72912 8.04175C2.11468 8.22234 1.79848 8.53462 2.42008 8.09615C4.00757 6.97634 5.9337 6.05848 7.83742 5.26722C8.44524 5.01458 10.009 3.5602 9.20085 4.42398C7.13856 6.62813 5.57014 8.85806 4.58338 11.4419C3.51943 14.2279 6.56838 5.81263 8.16465 3.17272C8.98302 1.81929 7.06126 4.55525 6.85576 4.832C5.98771 6.00097 5.57154 7.42244 4.58338 8.53137C3.12615 10.1667 6.9402 5.01299 8.31008 3.33593C9.03739 2.44552 8.2769 3.72369 8.14647 3.96156C7.4607 5.21212 6.59177 6.45707 6.27403 7.79694C5.74559 10.0253 5.53805 8.09709 4.81971 6.9809C4.22701 6.05993 3.40779 5.20826 2.80184 4.30157C2.49991 3.8498 4.04328 4.71935 4.58338 5.02241C5.6261 5.60749 6.84679 5.98206 7.96468 6.47767C8.15994 6.56425 10.7809 7.86431 10.7097 7.90574C10.0673 8.27958 6.40089 5.86467 5.87409 5.51203C4.96645 4.90446 4.01759 5.03961 3.0927 4.65519C0.314895 3.50062 8.96522 6.94768 10.7279 8.92579C12.4628 10.8728 5.43125 6.4264 2.92909 5.02241" stroke="white" stroke-width="2" stroke-linecap="round" stroke-linejoin="round"/>
</svg>
