<svg width="172" height="433" viewBox="0 0 172 433" fill="none" xmlns="http://www.w3.org/2000/svg">
  <path d="M62.6191 430C121.372 430 169 408.627 169 382.263C169 355.898 121.372 334.525 62.6191 334.525C29.6925 334.525 3.00002 343.573 3.00002 354.733C3.00002 365.894 29.6925 374.941 62.6191 374.941C121.372 374.941 169 353.568 169 327.204C169 300.839 121.372 279.466 62.6191 279.466C29.6925 279.466 3.00001 288.513 3.00001 299.674C3.00001 310.835 29.6925 319.882 62.6191 319.882C121.372 319.882 169 298.378 169 271.852C169 245.326 121.372 223.821 62.6191 223.821C29.6925 223.821 3.00001 232.869 3.00001 244.03C3.00001 255.191 29.6925 264.237 62.6191 264.237C121.372 264.237 169 242.865 169 216.5C169 190.135 121.372 168.763 62.6191 168.763C29.6925 168.763 3 177.809 3 188.97C3 200.131 29.6925 209.179 62.6191 209.179C121.372 209.179 169 187.805 169 161.441C169 135.076 121.372 113.704 62.6191 113.704C29.6925 113.704 3 122.752 3 133.911C3 145.072 29.6925 154.119 62.6191 154.119C121.372 154.119 169 132.746 169 106.383C169 80.018 121.372 58.6445 62.6191 58.6445C29.6925 58.6445 2.99999 67.6922 2.99999 78.853C2.99999 90.0122 29.6925 99.0599 62.6191 99.0599C121.372 99.0599 169 77.5569 169 51.0308C169 24.5047 121.372 3 62.6191 3" stroke="url(#gradient)" stroke-width="6" stroke-linecap="round"/>
  <defs>
    <linearGradient id="gradient" x1="86" y1="430" x2="86" y2="3.00001" gradientUnits="userSpaceOnUse">
      <stop stop-color="#FF0059"/>
      <stop offset="0.354167" stop-color="#FF8EE8"/>
      <stop offset="0.6875" stop-color="#876DFF"/>
      <stop offset="0.911458" stop-color="#0BAE95"/>
    </linearGradient>
  </defs>
</svg>
