<svg width="49" height="83" viewBox="0 0 49 83" fill="none" xmlns="http://www.w3.org/2000/svg">
  <path d="M10.583 4.16832C9.94657 13.6916 5.73453 24.3239 8.78141 33.9155C11.3481 41.9954 15.0344 48.8581 18.6392 56.4357C20.5418 60.4351 25.8223 55.8778 28.6826 54.9203C31.5221 53.9698 34.3615 53.0193 37.2009 52.0689C39.2032 51.3986 39.3028 51.3221 38.5881 49.187C37.5841 46.1879 36.5802 43.1887 35.5762 40.1896C34.7639 37.7631 32.971 36.1308 31.6086 33.9967C29.778 31.129 28.0633 28.0869 26.4468 25.1145C24.5048 21.5436 22.1845 15.7613 19.1635 13.1148C16.2567 10.5684 13.6828 8.16457 10.6 5.97572" stroke="#ff0059" stroke-width="2" stroke-linecap="round"/>
  <path d="M15.0347 27.7455C16.1957 31.2139 17.1908 34.825 18.5432 38.2268C19.8015 41.3919 22.8772 37.3823 23.2969 35.9232C23.8859 33.8757 22.2613 30.9957 21.6074 29.0421C21.0066 27.2475 16.7726 25.0899 16.3141 27.9" stroke="#ff0059" stroke-width="2" stroke-linecap="round"/>
  <path d="M25.0376 62.4612C26.7578 67.9554 27.3691 74.354 30.6579 79.1496C31.0679 79.7475 32.3192 74.6309 32.5492 73.9757C33.4213 71.4921 33.1101 70.5491 35.0873 73.465C36.112 74.9762 39.2274 79.3587 38.6478 77.6272C38.4752 77.1116 37.1469 73.1144 37.9907 72.8319C39.3713 72.3698 41.2035 75.7872 42.6669 76.0785C44.1069 76.365 42.5391 72.9052 42.5185 71.8923C42.4881 70.3978 41.6079 69.3566 43.5114 70.3062C43.8445 70.4723 46.7577 71.9089 46.783 71.3797C46.8965 68.9974 41.9233 64.5007 40.1093 63.38C37.5803 61.8177 38.5784 58.3185 35.0872 59.7071C31.5533 61.1126 28.2026 63.2316 24.4922 64.4736" stroke="#ff0059" stroke-width="2" stroke-linecap="round"/>
</svg>
