<svg width="228" height="92" viewBox="0 0 228 92" fill="none" xmlns="http://www.w3.org/2000/svg">
  <path d="M133.421 8.79643C94.7824 8.79643 65.4558 16.9241 30.7918 31.0402C10.5287 39.2918 2.65588 46.1471 1.60241 65.8811C1.25299 72.4266 -1.12028 83.8728 6.80051 88.0114C15.6687 92.6449 30.1649 90.5081 39.9884 90.5081C68.7814 90.5081 93.7488 83.0771 120.226 74.2792C144.153 66.3286 169.145 58.4318 191.8 48.0634C202.429 43.1986 226.215 33.537 226.987 21.0532C227.683 9.78853 200.205 6.70339 191.533 4.71084C157.461 -3.11766 127.314 2.31092 95.0351 12.882" stroke="#ff0059" stroke-width="2" stroke-linecap="round"/>
</svg>
