<svg width="180" height="180" viewBox="0 0 180 180" xmlns="http://www.w3.org/2000/svg">
  <style>
    rect { fill: #ff0059; }
    @media (prefers-color-scheme: dark) {
      rect { fill: #000000; }
    }
  </style>
  <rect width="180" height="180" rx="90"/>
  <path fill-rule="evenodd" clip-rule="evenodd" d="M62.6251 159.836L74.8071 145.635L128.613 82.8443L139.769 69.7947L100.373 80.615L135.96 28H65.6794C59.6638 37.864 41 67.685 41 67.685L51.0974 65.4556L82.372 58.5828L51.0974 113.587L89.8495 102.625L69.6657 144.536L62.2857 159.836H62.6251Z" fill="white"/>
</svg>
